{
  "Connections" : [ [ {
    "line" : "14",
    "station" : "Бульвар Рокоссовского"
  }, {
    "line" : "D2",
    "station" : "Бульвар Рокоссовского]"
  } ], [ {
    "line" : "14",
    "station" : "Локомотив"
  }, {
    "line" : "D2",
    "station" : "Черкизовская]"
  } ], [ {
    "line" : "5",
    "station" : "Комсомольская"
  }, {
    "line" : "D2",
    "station" : "Каланчёвская"
  }, {
    "line" : "D2",
    "station" : "Комсомольская]"
  } ], [ {
    "line" : "10",
    "station" : "Сретенский бульвар"
  }, {
    "line" : "6",
    "station" : "Тургеневская"
  }, {
    "line" : "D2",
    "station" : "Чистые пруды]"
  } ], [ {
    "line" : "7",
    "station" : "Кузнецкий мост"
  }, {
    "line" : "D2",
    "station" : "Лубянка]"
  } ], [ {
    "line" : "2",
    "station" : "Театральная"
  }, {
    "line" : "3",
    "station" : "Площадь Революции"
  }, {
    "line" : "D2",
    "station" : "Охотный ряд]"
  } ], [ {
    "line" : "3",
    "station" : "Арбатская"
  }, {
    "line" : "4",
    "station" : "Александровский сад"
  }, {
    "line" : "9",
    "station" : "Боровицкая"
  }, {
    "line" : "D2",
    "station" : "Библиотека имени Ленина]"
  } ], [ {
    "line" : "5",
    "station" : "Парк Культуры"
  }, {
    "line" : "D2",
    "station" : "Парк Культуры]"
  } ], [ {
    "line" : "14",
    "station" : "Лужники"
  }, {
    "line" : "D2",
    "station" : "Спортивная]"
  } ], [ {
    "line" : "14",
    "station" : "Балтийская"
  }, {
    "line" : "D2",
    "station" : "Войковская"
  }, {
    "line" : "D2",
    "station" : "Стрешнево]"
  } ], [ {
    "line" : "11",
    "station" : "Петровский парк"
  }, {
    "line" : "D2",
    "station" : "Динамо]"
  } ], [ {
    "line" : "5",
    "station" : "Белорусская"
  }, {
    "line" : "D1",
    "station" : "Белорусская"
  }, {
    "line" : "D2",
    "station" : "Белорусская]"
  } ], [ {
    "line" : "7",
    "station" : "Пушкинская"
  }, {
    "line" : "9",
    "station" : "Чеховская"
  }, {
    "line" : "D2",
    "station" : "Тверская]"
  } ], [ {
    "line" : "1",
    "station" : "Охотный ряд"
  }, {
    "line" : "3",
    "station" : "Площадь Революции"
  }, {
    "line" : "D2",
    "station" : "Театральная]"
  } ], [ {
    "line" : "6",
    "station" : "Третьяковская"
  }, {
    "line" : "8",
    "station" : "Третьяковская"
  }, {
    "line" : "D2",
    "station" : "Новокузнецкая]"
  } ], [ {
    "line" : "5",
    "station" : "Павелецкая"
  }, {
    "line" : "D2",
    "station" : "Павелецкая]"
  } ], [ {
    "line" : "14",
    "station" : "Автозаводская"
  }, {
    "line" : "D2",
    "station" : "Автозаводская]"
  } ], [ {
    "line" : "11A",
    "station" : "Каширская"
  }, {
    "line" : "D2",
    "station" : "Каширская]"
  } ], [ {
    "line" : "D2",
    "station" : "Царицыно"
  }, {
    "line" : "D2",
    "station" : "Царицыно]"
  } ], [ {
    "line" : "10",
    "station" : "Зябликово"
  }, {
    "line" : "D2",
    "station" : "Красногвардейская]"
  } ], [ {
    "line" : "D2",
    "station" : "Волоколамская"
  }, {
    "line" : "D2",
    "station" : "Волоколамская]"
  } ], [ {
    "line" : "4",
    "station" : "Кунцевская"
  }, {
    "line" : "D1",
    "station" : "Кунцево"
  }, {
    "line" : "D2",
    "station" : "Кунцевская]"
  } ], [ {
    "line" : "8",
    "station" : "Парк Победы"
  }, {
    "line" : "D2",
    "station" : "Парк Победы]"
  } ], [ {
    "line" : "4",
    "station" : "Киевская"
  }, {
    "line" : "5",
    "station" : "Киевская"
  }, {
    "line" : "D2",
    "station" : "Киевская]"
  } ], [ {
    "line" : "1",
    "station" : "Библиотека имени Ленина"
  }, {
    "line" : "4",
    "station" : "Александровский сад"
  }, {
    "line" : "9",
    "station" : "Боровицкая"
  }, {
    "line" : "D2",
    "station" : "Арбатская]"
  } ], [ {
    "line" : "1",
    "station" : "Охотный ряд"
  }, {
    "line" : "2",
    "station" : "Театральная"
  }, {
    "line" : "D2",
    "station" : "Площадь Революции]"
  } ], [ {
    "line" : "10",
    "station" : "Чкаловская"
  }, {
    "line" : "5",
    "station" : "Курская"
  }, {
    "line" : "D2",
    "station" : "Курская"
  }, {
    "line" : "D2",
    "station" : "Курская]"
  } ], [ {
    "line" : "14",
    "station" : "Измайлово"
  }, {
    "line" : "D2",
    "station" : "Партизанская]"
  } ], [ {
    "line" : "1",
    "station" : "Библиотека имени Ленина"
  }, {
    "line" : "3",
    "station" : "Арбатская"
  }, {
    "line" : "9",
    "station" : "Боровицкая"
  }, {
    "line" : "D2",
    "station" : "Александровский сад]"
  } ], [ {
    "line" : "3",
    "station" : "Киевская"
  }, {
    "line" : "5",
    "station" : "Киевская"
  }, {
    "line" : "D2",
    "station" : "Киевская]"
  } ], [ {
    "line" : "14",
    "station" : "Кутузовская"
  }, {
    "line" : "D2",
    "station" : "Кутузовская]"
  } ], [ {
    "line" : "D1",
    "station" : "Фили"
  }, {
    "line" : "D2",
    "station" : "Фили]"
  } ], [ {
    "line" : "3",
    "station" : "Кунцевская"
  }, {
    "line" : "D1",
    "station" : "Кунцево"
  }, {
    "line" : "D2",
    "station" : "Кунцевская]"
  } ], [ {
    "line" : "11",
    "station" : "Деловой центр"
  }, {
    "line" : "D1",
    "station" : "Тестовская"
  }, {
    "line" : "D2",
    "station" : "Выставочная]"
  } ], [ {
    "line" : "14",
    "station" : "Деловой центр"
  }, {
    "line" : "D1",
    "station" : "Тестовская"
  }, {
    "line" : "D2",
    "station" : "Международная]"
  } ], [ {
    "line" : "3",
    "station" : "Киевская"
  }, {
    "line" : "4",
    "station" : "Киевская"
  }, {
    "line" : "D2",
    "station" : "Киевская]"
  } ], [ {
    "line" : "1",
    "station" : "Парк Культуры"
  }, {
    "line" : "D2",
    "station" : "Парк Культуры]"
  } ], [ {
    "line" : "6",
    "station" : "Октябрьская"
  }, {
    "line" : "D2",
    "station" : "Октябрьская]"
  } ], [ {
    "line" : "9",
    "station" : "Серпуховская"
  }, {
    "line" : "D2",
    "station" : "Добрынинская]"
  } ], [ {
    "line" : "2",
    "station" : "Павелецкая"
  }, {
    "line" : "D2",
    "station" : "Павелецкая]"
  } ], [ {
    "line" : "7",
    "station" : "Таганская"
  }, {
    "line" : "8",
    "station" : "Марксистская"
  }, {
    "line" : "D2",
    "station" : "Таганская]"
  } ], [ {
    "line" : "10",
    "station" : "Чкаловская"
  }, {
    "line" : "3",
    "station" : "Курская"
  }, {
    "line" : "D2",
    "station" : "Курская"
  }, {
    "line" : "D2",
    "station" : "Курская]"
  } ], [ {
    "line" : "1",
    "station" : "Комсомольская"
  }, {
    "line" : "D2",
    "station" : "Каланчёвская"
  }, {
    "line" : "D2",
    "station" : "Комсомольская]"
  } ], [ {
    "line" : "6",
    "station" : "Проспект Мира"
  }, {
    "line" : "D2",
    "station" : "Проспект Мира]"
  } ], [ {
    "line" : "9",
    "station" : "Менделеевская"
  }, {
    "line" : "D2",
    "station" : "Новослободская]"
  } ], [ {
    "line" : "2",
    "station" : "Белорусская"
  }, {
    "line" : "D1",
    "station" : "Белорусская"
  }, {
    "line" : "D2",
    "station" : "Белорусская]"
  } ], [ {
    "line" : "7",
    "station" : "Баррикадная"
  }, {
    "line" : "D2",
    "station" : "Краснопресненская]"
  } ], [ {
    "line" : "12",
    "station" : "Битцевский парк"
  }, {
    "line" : "D2",
    "station" : "Новоясеневская]"
  } ], [ {
    "line" : "14",
    "station" : "Площадь Гагарина"
  }, {
    "line" : "D2",
    "station" : "Ленинский проспект]"
  } ], [ {
    "line" : "5",
    "station" : "Октябрьская"
  }, {
    "line" : "D2",
    "station" : "Октябрьская]"
  } ], [ {
    "line" : "2",
    "station" : "Новокузнецкая"
  }, {
    "line" : "8",
    "station" : "Третьяковская"
  }, {
    "line" : "D2",
    "station" : "Третьяковская]"
  } ], [ {
    "line" : "7",
    "station" : "Китай-город"
  }, {
    "line" : "D2",
    "station" : "Китай-город]"
  } ], [ {
    "line" : "1",
    "station" : "Чистые пруды"
  }, {
    "line" : "10",
    "station" : "Сретенский бульвар"
  }, {
    "line" : "D2",
    "station" : "Тургеневская]"
  } ], [ {
    "line" : "5",
    "station" : "Проспект Мира"
  }, {
    "line" : "D2",
    "station" : "Проспект Мира]"
  } ], [ {
    "line" : "D2",
    "station" : "Рижская"
  }, {
    "line" : "D2",
    "station" : "Рижская]"
  } ], [ {
    "line" : "14",
    "station" : "Ботанический Сад"
  }, {
    "line" : "D2",
    "station" : "Ботанический сад]"
  } ], [ {
    "line" : "15",
    "station" : "Косино"
  }, {
    "line" : "D2",
    "station" : "Лермонтовский проспект]"
  } ], [ {
    "line" : "D2",
    "station" : "Текстильщики"
  }, {
    "line" : "D2",
    "station" : "Текстильщики]"
  } ], [ {
    "line" : "14",
    "station" : "Угрешская"
  }, {
    "line" : "D2",
    "station" : "Волгоградский проспект]"
  } ], [ {
    "line" : "10",
    "station" : "Крестьянская застава"
  }, {
    "line" : "D2",
    "station" : "Пролетарская]"
  } ], [ {
    "line" : "5",
    "station" : "Таганская"
  }, {
    "line" : "8",
    "station" : "Марксистская"
  }, {
    "line" : "D2",
    "station" : "Таганская]"
  } ], [ {
    "line" : "6",
    "station" : "Китай-город"
  }, {
    "line" : "D2",
    "station" : "Китай-город]"
  } ], [ {
    "line" : "1",
    "station" : "Лубянка"
  }, {
    "line" : "D2",
    "station" : "Кузнецкий мост]"
  } ], [ {
    "line" : "2",
    "station" : "Тверская"
  }, {
    "line" : "9",
    "station" : "Чеховская"
  }, {
    "line" : "D2",
    "station" : "Пушкинская]"
  } ], [ {
    "line" : "5",
    "station" : "Краснопресненская"
  }, {
    "line" : "D2",
    "station" : "Баррикадная]"
  } ], [ {
    "line" : "D1",
    "station" : "Беговая"
  }, {
    "line" : "D2",
    "station" : "Беговая]"
  } ], [ {
    "line" : "11",
    "station" : "Хорошёвская"
  }, {
    "line" : "14",
    "station" : "Хорошёво"
  }, {
    "line" : "D2",
    "station" : "Полежаевская]"
  } ], [ {
    "line" : "14",
    "station" : "Зорге"
  }, {
    "line" : "14",
    "station" : "Панфиловская"
  }, {
    "line" : "D2",
    "station" : "Октябрьское Поле]"
  } ], [ {
    "line" : "D2",
    "station" : "Тушино"
  }, {
    "line" : "D2",
    "station" : "Тушинская]"
  } ], [ {
    "line" : "14",
    "station" : "Шоссе Энтузиастов"
  }, {
    "line" : "D2",
    "station" : "Шоссе Энтузиастов]"
  } ], [ {
    "line" : "15",
    "station" : "Авиамоторная"
  }, {
    "line" : "D2",
    "station" : "Авиамоторная]"
  } ], [ {
    "line" : "10",
    "station" : "Римская"
  }, {
    "line" : "D2",
    "station" : "Москва Товарная"
  }, {
    "line" : "D2",
    "station" : "Площадь Ильича]"
  } ], [ {
    "line" : "5",
    "station" : "Таганская"
  }, {
    "line" : "7",
    "station" : "Таганская"
  }, {
    "line" : "D2",
    "station" : "Марксистская]"
  } ], [ {
    "line" : "2",
    "station" : "Новокузнецкая"
  }, {
    "line" : "6",
    "station" : "Третьяковская"
  }, {
    "line" : "D2",
    "station" : "Третьяковская]"
  } ], [ {
    "line" : "3",
    "station" : "Парк Победы"
  }, {
    "line" : "D2",
    "station" : "Парк Победы]"
  } ], [ {
    "line" : "12",
    "station" : "Улица Старокачаловская"
  }, {
    "line" : "D2",
    "station" : "Бульвар Дмитрия Донского]"
  } ], [ {
    "line" : "5",
    "station" : "Добрынинская"
  }, {
    "line" : "D2",
    "station" : "Серпуховская]"
  } ], [ {
    "line" : "1",
    "station" : "Библиотека имени Ленина"
  }, {
    "line" : "3",
    "station" : "Арбатская"
  }, {
    "line" : "4",
    "station" : "Александровский сад"
  }, {
    "line" : "D2",
    "station" : "Боровицкая]"
  } ], [ {
    "line" : "2",
    "station" : "Тверская"
  }, {
    "line" : "7",
    "station" : "Пушкинская"
  }, {
    "line" : "D2",
    "station" : "Чеховская]"
  } ], [ {
    "line" : "10",
    "station" : "Трубная"
  }, {
    "line" : "D2",
    "station" : "Цветной бульвар]"
  } ], [ {
    "line" : "5",
    "station" : "Новослободская"
  }, {
    "line" : "D2",
    "station" : "Менделеевская]"
  } ], [ {
    "line" : "11",
    "station" : "Савёловская"
  }, {
    "line" : "D1",
    "station" : "Савёловская"
  }, {
    "line" : "D2",
    "station" : "Савеловская]"
  } ], [ {
    "line" : "D2",
    "station" : "Дмитровская"
  }, {
    "line" : "D2",
    "station" : "Дмитровская]"
  } ], [ {
    "line" : "D1",
    "station" : "Тимирязевская"
  }, {
    "line" : "D2",
    "station" : "Тимирязевская]"
  } ], [ {
    "line" : "10",
    "station" : "Петровско-Разумовская"
  }, {
    "line" : "D2",
    "station" : "Петровско-Разумовская]"
  } ], [ {
    "line" : "14",
    "station" : "Владыкино"
  }, {
    "line" : "D2",
    "station" : "Владыкино]"
  } ], [ {
    "line" : "2",
    "station" : "Красногвардейская"
  }, {
    "line" : "D2",
    "station" : "Зябликово]"
  } ], [ {
    "line" : "D2",
    "station" : "Кубанская"
  }, {
    "line" : "D2",
    "station" : "Печатники]"
  } ], [ {
    "line" : "14",
    "station" : "Дубровка"
  }, {
    "line" : "D2",
    "station" : "Дубровка]"
  } ], [ {
    "line" : "7",
    "station" : "Пролетарская"
  }, {
    "line" : "D2",
    "station" : "Крестьянская застава]"
  } ], [ {
    "line" : "8",
    "station" : "Площадь Ильича"
  }, {
    "line" : "D2",
    "station" : "Москва Товарная"
  }, {
    "line" : "D2",
    "station" : "Римская]"
  } ], [ {
    "line" : "3",
    "station" : "Курская"
  }, {
    "line" : "5",
    "station" : "Курская"
  }, {
    "line" : "D2",
    "station" : "Курская"
  }, {
    "line" : "D2",
    "station" : "Чкаловская]"
  } ], [ {
    "line" : "1",
    "station" : "Чистые пруды"
  }, {
    "line" : "6",
    "station" : "Тургеневская"
  }, {
    "line" : "D2",
    "station" : "Сретенский бульвар]"
  } ], [ {
    "line" : "9",
    "station" : "Цветной бульвар"
  }, {
    "line" : "D2",
    "station" : "Трубная]"
  } ], [ {
    "line" : "9",
    "station" : "Петровско-Разумовская"
  }, {
    "line" : "D2",
    "station" : "Петровско-Разумовская]"
  } ], [ {
    "line" : "14",
    "station" : "Окружная"
  }, {
    "line" : "D1",
    "station" : "Окружная"
  }, {
    "line" : "D2",
    "station" : "Окружная]"
  } ], [ {
    "line" : "9",
    "station" : "Савеловская"
  }, {
    "line" : "D1",
    "station" : "Савёловская"
  }, {
    "line" : "D2",
    "station" : "Савёловская]"
  } ], [ {
    "line" : "2",
    "station" : "Динамо"
  }, {
    "line" : "D2",
    "station" : "Петровский парк]"
  } ], [ {
    "line" : "14",
    "station" : "Хорошёво"
  }, {
    "line" : "7",
    "station" : "Полежаевская"
  }, {
    "line" : "D2",
    "station" : "Хорошёвская]"
  } ], [ {
    "line" : "14",
    "station" : "Шелепиха"
  }, {
    "line" : "D1",
    "station" : "Тестовская"
  }, {
    "line" : "D2",
    "station" : "Шелепиха]"
  } ], [ {
    "line" : "4",
    "station" : "Выставочная"
  }, {
    "line" : "D1",
    "station" : "Тестовская"
  }, {
    "line" : "D2",
    "station" : "Деловой центр]"
  } ], [ {
    "line" : "2",
    "station" : "Каширская"
  }, {
    "line" : "D2",
    "station" : "Каширская]"
  } ], [ {
    "line" : "6",
    "station" : "Новоясеневская"
  }, {
    "line" : "D2",
    "station" : "Битцевский парк]"
  } ], [ {
    "line" : "9",
    "station" : "Бульвар Дмитрия Донского"
  }, {
    "line" : "D2",
    "station" : "Улица Старокачаловская]"
  } ], [ {
    "line" : "10",
    "station" : "Окружная"
  }, {
    "line" : "D1",
    "station" : "Окружная"
  }, {
    "line" : "D2",
    "station" : "Окружная]"
  } ], [ {
    "line" : "9",
    "station" : "Владыкино"
  }, {
    "line" : "D2",
    "station" : "Владыкино]"
  } ], [ {
    "line" : "6",
    "station" : "Ботанический сад"
  }, {
    "line" : "D2",
    "station" : "Ботанический Сад]"
  } ], [ {
    "line" : "1",
    "station" : "Бульвар Рокоссовского"
  }, {
    "line" : "D2",
    "station" : "Бульвар Рокоссовского]"
  } ], [ {
    "line" : "1",
    "station" : "Черкизовская"
  }, {
    "line" : "D2",
    "station" : "Локомотив]"
  } ], [ {
    "line" : "3",
    "station" : "Партизанская"
  }, {
    "line" : "D2",
    "station" : "Измайлово]"
  } ], [ {
    "line" : "8",
    "station" : "Шоссе Энтузиастов"
  }, {
    "line" : "D2",
    "station" : "Шоссе Энтузиастов]"
  } ], [ {
    "line" : "15",
    "station" : "Нижегородская"
  }, {
    "line" : "D2",
    "station" : "Нижегородская]"
  } ], [ {
    "line" : "D2",
    "station" : "Новохохловская"
  }, {
    "line" : "D2",
    "station" : "Новохохловская]"
  } ], [ {
    "line" : "7",
    "station" : "Волгоградский проспект"
  }, {
    "line" : "D2",
    "station" : "Угрешская]"
  } ], [ {
    "line" : "10",
    "station" : "Дубровка"
  }, {
    "line" : "10",
    "station" : "Кожуховская"
  }, {
    "line" : "D2",
    "station" : "Дубровка]"
  } ], [ {
    "line" : "2",
    "station" : "Автозаводская"
  }, {
    "line" : "D2",
    "station" : "Автозаводская]"
  } ], [ {
    "line" : "6",
    "station" : "Ленинский проспект"
  }, {
    "line" : "D2",
    "station" : "Площадь Гагарина]"
  } ], [ {
    "line" : "1",
    "station" : "Спортивная"
  }, {
    "line" : "D2",
    "station" : "Лужники]"
  } ], [ {
    "line" : "4",
    "station" : "Кутузовская"
  }, {
    "line" : "D2",
    "station" : "Кутузовская]"
  } ], [ {
    "line" : "4",
    "station" : "Международная"
  }, {
    "line" : "D1",
    "station" : "Тестовская"
  }, {
    "line" : "D2",
    "station" : "Деловой центр]"
  } ], [ {
    "line" : "11",
    "station" : "Шелепиха"
  }, {
    "line" : "D1",
    "station" : "Тестовская"
  }, {
    "line" : "D2",
    "station" : "Шелепиха]"
  } ], [ {
    "line" : "11",
    "station" : "Хорошёвская"
  }, {
    "line" : "7",
    "station" : "Полежаевская"
  }, {
    "line" : "D2",
    "station" : "Хорошёво]"
  } ], [ {
    "line" : "7",
    "station" : "Октябрьское Поле"
  }, {
    "line" : "D2",
    "station" : "Зорге]"
  } ], [ {
    "line" : "7",
    "station" : "Октябрьское Поле"
  }, {
    "line" : "D2",
    "station" : "Панфиловская]"
  } ], [ {
    "line" : "D2",
    "station" : "Стрешнево"
  }, {
    "line" : "D2",
    "station" : "Стрешнево]"
  } ], [ {
    "line" : "2",
    "station" : "Войковская"
  }, {
    "line" : "D2",
    "station" : "Балтийская]"
  } ], [ {
    "line" : "8",
    "station" : "Авиамоторная"
  }, {
    "line" : "D2",
    "station" : "Авиамоторная]"
  } ], [ {
    "line" : "14",
    "station" : "Нижегородская"
  }, {
    "line" : "D2",
    "station" : "Нижегородская]"
  } ], [ {
    "line" : "7",
    "station" : "Лермонтовский проспект"
  }, {
    "line" : "D2",
    "station" : "Косино]"
  } ], [ {
    "line" : "3",
    "station" : "Кунцевская"
  }, {
    "line" : "4",
    "station" : "Кунцевская"
  }, {
    "line" : "D2",
    "station" : "Кунцево]"
  } ], [ {
    "line" : "4",
    "station" : "Фили"
  }, {
    "line" : "D2",
    "station" : "Фили]"
  } ], [ {
    "line" : "11",
    "station" : "Деловой центр"
  }, {
    "line" : "11",
    "station" : "Шелепиха"
  }, {
    "line" : "14",
    "station" : "Деловой центр"
  }, {
    "line" : "14",
    "station" : "Шелепиха"
  }, {
    "line" : "4",
    "station" : "Выставочная"
  }, {
    "line" : "4",
    "station" : "Международная"
  }, {
    "line" : "D2",
    "station" : "Тестовская]"
  } ], [ {
    "line" : "7",
    "station" : "Беговая"
  }, {
    "line" : "D2",
    "station" : "Беговая]"
  } ], [ {
    "line" : "2",
    "station" : "Белорусская"
  }, {
    "line" : "5",
    "station" : "Белорусская"
  }, {
    "line" : "D2",
    "station" : "Белорусская]"
  } ], [ {
    "line" : "11",
    "station" : "Савёловская"
  }, {
    "line" : "9",
    "station" : "Савеловская"
  }, {
    "line" : "D2",
    "station" : "Савёловская]"
  } ], [ {
    "line" : "9",
    "station" : "Тимирязевская"
  }, {
    "line" : "D2",
    "station" : "Тимирязевская]"
  } ], [ {
    "line" : "10",
    "station" : "Окружная"
  }, {
    "line" : "14",
    "station" : "Окружная"
  }, {
    "line" : "D2",
    "station" : "Окружная]"
  } ], [ {
    "line" : "3",
    "station" : "Волоколамская"
  }, {
    "line" : "D2",
    "station" : "Волоколамская]"
  } ], [ {
    "line" : "7",
    "station" : "Тушинская"
  }, {
    "line" : "D2",
    "station" : "Тушино]"
  } ], [ {
    "line" : "14",
    "station" : "Стрешнево"
  }, {
    "line" : "2",
    "station" : "Войковская"
  }, {
    "line" : "D2",
    "station" : "Стрешнево]"
  } ], [ {
    "line" : "9",
    "station" : "Дмитровская"
  }, {
    "line" : "D2",
    "station" : "Дмитровская]"
  } ], [ {
    "line" : "6",
    "station" : "Рижская"
  }, {
    "line" : "D2",
    "station" : "Рижская]"
  } ], [ {
    "line" : "1",
    "station" : "Комсомольская"
  }, {
    "line" : "5",
    "station" : "Комсомольская"
  }, {
    "line" : "D2",
    "station" : "Каланчёвская]"
  } ], [ {
    "line" : "10",
    "station" : "Чкаловская"
  }, {
    "line" : "3",
    "station" : "Курская"
  }, {
    "line" : "5",
    "station" : "Курская"
  }, {
    "line" : "D2",
    "station" : "Курская]"
  } ], [ {
    "line" : "10",
    "station" : "Римская"
  }, {
    "line" : "8",
    "station" : "Площадь Ильича"
  }, {
    "line" : "D2",
    "station" : "Москва Товарная]"
  } ], [ {
    "line" : "14",
    "station" : "Новохохловская"
  }, {
    "line" : "D2",
    "station" : "Новохохловская]"
  } ], [ {
    "line" : "7",
    "station" : "Текстильщики"
  }, {
    "line" : "D2",
    "station" : "Текстильщики]"
  } ], [ {
    "line" : "10",
    "station" : "Печатники"
  }, {
    "line" : "D2",
    "station" : "Кубанская]"
  } ], [ {
    "line" : "2",
    "station" : "Царицыно"
  }, {
    "line" : "D2",
    "station" : "Царицыно]"
  } ] ],
  "stations" : {
    "11" : [ "Савёловская ", " Петровский парк ", " ЦСКА ", " Хорошёвская ", " Шелепиха ", " Деловой центр" ],
    "11A" : [ "Каховская ", " Варшавская ", " Каширская" ],
    "12" : [ "Битцевский парк ", " Лесопарковая ", " Улица Старокачаловская ", " Улица Скобелевская ", " Бульвар адмирала Ушакова ", " Улица Горчакова ", " Бунинская Аллея" ],
    "14" : [ "Окружная ", " Владыкино ", " Ботанический Сад ", " Ростокино ", " Белокаменная ", " Бульвар Рокоссовского ", " Локомотив ", " Измайлово ", " Соколиная Гора ", " Шоссе Энтузиастов ", " Андроновка ", " Нижегородская ", " Новохохловская ", " Угрешская ", " Дубровка ", " Автозаводская ", " ЗИЛ ", " Верхние Котлы ", " Крымская ", " Площадь Гагарина ", " Лужники ", " Кутузовская ", " Деловой центр ", " Шелепиха ", " Хорошёво ", " Зорге ", " Панфиловская ", " Стрешнево ", " Балтийская ", " Коптево ", " Лихоборы" ],
    "15" : [ "Лефортово ", " Авиамоторная ", " Нижегородская ", " Стахановская ", " Окская ", " Юго-Восточная ", " Косино ", " Улица Дмитриевского ", " Лухмановская ", " Некрасовка" ],
    "D1" : [ "Одинцово ", " Баковка ", " Сколково ", " Немчиновка ", " Сетунь ", " Рабочий Посёлок ", " Кунцево ", " Славянский бульвар ", " Фили ", " Тестовская ", " Беговая ", " Белорусская ", " Савёловская ", " Тимирязевская ", " Окружная ", " Дегунино ", " Бескудниково ", " Лианозово ", " Марк ", " Новодачная ", " Долгопрудная ", " Водники ", " Хлебниково ", " Шереметьевская ", " Лобня" ],
    "D2" : [ "Нахабино ", " Аникеевка ", " Опалиха ", " Красногорская ", " Павшино ", " Пенягино ", " Волоколамская ", " Трикотажная ", " Тушино ", " Стрешнево ", " Красный Балтиец ", " Гражданская ", " Дмитровская ", " Рижская ", " Каланчёвская ", " Курская ", " Москва Товарная ", " Калитники ", " Новохохловская ", " Текстильщики ", " Кубанская ", " Депо ", " Перерва ", " Москворечье ", " Царицыно ", " Покровская ", " Красный Строитель ", " Битца ", " Бутово ", " Щербинка ", " Остафьево ", " Силикатная ", " Подольск" ],
    "1" : [ "Бульвар Рокоссовского ", " Черкизовская ", " Преображенская площадь ", " Сокольники ", " Красносельская ", " Комсомольская ", " Красные ворота ", " Чистые пруды ", " Лубянка ", " Охотный ряд ", " Библиотека имени Ленина ", " Кропоткинская ", " Парк Культуры ", " Фрунзенская ", " Спортивная ", " Воробьевы горы ", " Университет ", " Проспект Вернадского ", " Юго-Западная ", " Тропарёво ", " Румянцево ", " Саларьево ", " Филатов Луг ", " Прокшино ", " Ольховая ", " Коммунарка" ],
    "2" : [ "Ховрино ", " Беломорская ", " Речной вокзал ", " Водный стадион ", " Войковская ", " Сокол ", " Аэропорт ", " Динамо ", " Белорусская ", " Маяковская ", " Тверская ", " Театральная ", " Новокузнецкая ", " Павелецкая ", " Автозаводская ", " Технопарк ", " Коломенская ", " Каширская ", " Кантемировская ", " Царицыно ", " Орехово ", " Домодедовская ", " Красногвардейская ", " Алма-Атинская" ],
    "3" : [ "Пятницкое шоссе ", " Митино ", " Волоколамская ", " Мякинино ", " Строгино ", " Крылатское ", " Молодежная ", " Кунцевская ", " Славянский бульвар ", " Парк Победы ", " Киевская ", " Смоленская ", " Арбатская ", " Площадь Революции ", " Курская ", " Бауманская ", " Электрозаводская ", " Семеновская ", " Партизанская ", " Измайловская ", " Первомайская ", " Щелковская" ],
    "4" : [ "Александровский сад ", " Арбатская ", " Смоленская ", " Киевская ", " Студенческая ", " Кутузовская ", " Фили ", " Багратионовская ", " Филевский парк ", " Пионерская ", " Кунцевская ", " Выставочная ", " Международная" ],
    "5" : [ "Киевская ", " Парк Культуры ", " Октябрьская ", " Добрынинская ", " Павелецкая ", " Таганская ", " Курская ", " Комсомольская ", " Проспект Мира ", " Новослободская ", " Белорусская ", " Краснопресненская" ],
    "6" : [ "Новоясеневская ", " Ясенево ", " Теплый стан ", " Коньково ", " Беляево ", " Калужская ", " Новые Черёмушки ", " Профсоюзная ", " Академическая ", " Ленинский проспект ", " Шаболовская ", " Октябрьская ", " Третьяковская ", " Китай-город ", " Тургеневская ", " Сухаревская ", " Проспект Мира ", " Рижская ", " Алексеевская ", " ВДНХ ", " Ботанический сад ", " Свиблово ", " Бабушкинская ", " Медведково" ],
    "7" : [ "Котельники ", " Жулебино ", " Лермонтовский проспект ", " Выхино ", " Рязанский проспект ", " Кузьминки ", " Текстильщики ", " Волгоградский проспект ", " Пролетарская ", " Таганская ", " Китай-город ", " Кузнецкий мост ", " Пушкинская ", " Баррикадная ", " Улица 1905 года ", " Беговая ", " Полежаевская ", " Октябрьское Поле ", " Щукинская ", " Спартак ", " Тушинская ", " Сходненская ", " Планерная" ],
    "8" : [ "Новокосино ", " Новогиреево ", " Перово ", " Шоссе Энтузиастов ", " Авиамоторная ", " Площадь Ильича ", " Марксистская ", " Третьяковская ", " Деловой центр ", " Парк Победы ", " Минская ", " Ломоносовский проспект ", " Раменки ", " Мичуринский проспект ", " Озёрная ", " Говорово ", " Солнцево ", " Боровское шоссе ", " Новопеределкино ", " Рассказовка" ],
    "9" : [ "Бульвар Дмитрия Донского ", " Аннино ", " Улица академика Янгеля ", " Пражская ", " Южная ", " Чертановская ", " Севастопольская ", " Нахимовский Проспект ", " Нагорная ", " Нагатинская ", " Тульская ", " Серпуховская ", " Полянка ", " Боровицкая ", " Чеховская ", " Цветной бульвар ", " Менделеевская ", " Савеловская ", " Дмитровская ", " Тимирязевская ", " Петровско-Разумовская ", " Владыкино ", " Отрадное ", " Бибирево ", " Алтуфьево" ],
    "10" : [ "Зябликово ", " Шипиловская ", " Борисово ", " Марьино ", " Братиславская ", " Люблино ", " Волжская ", " Печатники ", " Кожуховская ", " Дубровка ", " Крестьянская застава ", " Римская ", " Чкаловская ", " Сретенский бульвар ", " Трубная ", " Достоевская ", " Марьина роща ", " Бутырская ", " Фонвизинская ", " Петровско-Разумовская ", " Окружная ", " Верхние Лихоборы ", " Селигерская" ]
  },
  "lines" : [ {
    "number" : "1",
    "name" : "Сокольническая линия"
  }, {
    "number" : "2",
    "name" : "Замоскворецкая линия"
  }, {
    "number" : "3",
    "name" : "Арбатско-Покровская линия"
  }, {
    "number" : "4",
    "name" : "Филевская линия"
  }, {
    "number" : "5",
    "name" : "Кольцевая линия"
  }, {
    "number" : "6",
    "name" : "Калужско-Рижская линия"
  }, {
    "number" : "7",
    "name" : "Таганско-Краснопресненская линия"
  }, {
    "number" : "8",
    "name" : "Калининско-Солнцевская линия"
  }, {
    "number" : "9",
    "name" : "Серпуховско-Тимирязевская линия"
  }, {
    "number" : "10",
    "name" : "Люблинско-Дмитровская линия"
  }, {
    "number" : "11",
    "name" : "Большая Кольцевая Линия"
  }, {
    "number" : "11A",
    "name" : "Каховская линия"
  }, {
    "number" : "12",
    "name" : "Бутовская линия"
  }, {
    "number" : "14",
    "name" : "Центральное Кольцо"
  }, {
    "number" : "15",
    "name" : "Некрасовская линия"
  }, {
    "number" : "D1",
    "name" : "МЦД-1"
  }, {
    "number" : "D2",
    "name" : "МЦД-2"
  } ]
}